…
1. Use your preferred function(s) to have a look at the data and get an idea of its structure. Make sure you summarize NA's and determine whether or not the data are tidy. You may also consider dealing with any naming issues.

```r
colleges 
```

```
## # A tibble: 341 x 10
##    INSTNM CITY  STABBR ZIP   ADM_RATE SAT_AVG PCIP26 COSTT4_A C150_4_POOLED
##    <chr>  <chr> <chr>  <chr>    <dbl>   <dbl>  <dbl>    <dbl>         <dbl>
##  1 Gross~ El C~ CA     9202~       NA      NA 0.0016     7956        NA    
##  2 Colle~ Visa~ CA     9327~       NA      NA 0.0066     8109        NA    
##  3 Colle~ San ~ CA     9440~       NA      NA 0.0038     8278        NA    
##  4 Ventu~ Vent~ CA     9300~       NA      NA 0.0035     8407        NA    
##  5 Oxnar~ Oxna~ CA     9303~       NA      NA 0.0085     8516        NA    
##  6 Moorp~ Moor~ CA     9302~       NA      NA 0.0151     8577        NA    
##  7 Skyli~ San ~ CA     9406~       NA      NA 0          8580         0.233
##  8 Glend~ Glen~ CA     9120~       NA      NA 0.002      9181        NA    
##  9 Citru~ Glen~ CA     9174~       NA      NA 0.0021     9281        NA    
## 10 Fresn~ Fres~ CA     93741       NA      NA 0.0324     9370        NA    
## # ... with 331 more rows, and 1 more variable: PFTFTUG1_EF <dbl>
```


</div>

2. Which cities in California have the highest number of colleges?

```r
colleges %>%
  group_by(CITY) %>%
  summarise( count = n())%>%
  arrange(desc(count))
```

```
## # A tibble: 161 x 2
##    CITY          count
##    <chr>         <int>
##  1 Los Angeles      24
##  2 San Diego        18
##  3 San Francisco    15
##  4 Sacramento       10
##  5 Berkeley          9
##  6 Oakland           9
##  7 Claremont         7
##  8 Pasadena          6
##  9 Fresno            5
## 10 Irvine            5
## # ... with 151 more rows
```
…
4. The column `COSTT4_A` is the annual cost of each institution. Which city has the highest average cost? Where is it located?

```r
colleges %>%
  group_by(CITY) %>%
  summarise(avg_cost = mean(COSTT4_A, na.rm = T))
```

```
## # A tibble: 161 x 2
##    CITY        avg_cost
##  * <chr>          <dbl>
##  1 Alameda        12038
##  2 Anaheim        16877
##  3 Angwin         41700
##  4 Aptos          14686
##  5 Arcata         23139
##  6 Atherton       56035
##  7 Azusa          48284
##  8 Bakersfield    15327
##  9 Barstow        14789
## 10 Belmont        50415
## # ... with 151 more rows
```
…
