…
fisheries_tidy$catch <- as.numeric(fisheries_tidy$catch)
```

3. How many countries are represented in the data? Provide a count and list their names.

```r
fisheries %>%
  group_by(country) %>%
  count()
```

```
## # A tibble: 204 x 2
## # Groups:   country [204]
##    country                 n
##    <fct>               <int>
##  1 Albania                67
##  2 Algeria                59
##  3 American Samoa         32
##  4 Angola                 88
##  5 Anguilla                3
##  6 Antigua and Barbuda    22
##  7 Argentina             140
##  8 Aruba                   5
##  9 Australia             301
## 10 Bahamas                14
## # ... with 194 more rows
```



4. Refocus the data only to include only: country, isscaap_taxonomic_group, asfis_species_name, asfis_species_number, year, catch.

```r
fisheries_tidy %>%
  select(country, isscaap_taxonomic_group, asfis_species_name, asfis_species_number, year, catch)
```

```
## # A tibble: 376,771 x 6
##    country isscaap_taxonomic_g~ asfis_species_na~ asfis_species_num~  year catch
##    <fct>   <chr>                <chr>             <fct>              <dbl> <dbl>
##  1 Albania Sharks, rays, chima~ Squatinidae       10903XXXXX          1995    NA
##  2 Albania Sharks, rays, chima~ Squatinidae       10903XXXXX          1996    53
##  3 Albania Sharks, rays, chima~ Squatinidae       10903XXXXX          1997    20
##  4 Albania Sharks, rays, chima~ Squatinidae       10903XXXXX          1998    31
##  5 Albania Sharks, rays, chima~ Squatinidae       10903XXXXX          1999    30
##  6 Albania Sharks, rays, chima~ Squatinidae       10903XXXXX          2000    30
##  7 Albania Sharks, rays, chima~ Squatinidae       10903XXXXX          2001    16
##  8 Albania Sharks, rays, chima~ Squatinidae       10903XXXXX          2002    79
##  9 Albania Sharks, rays, chima~ Squatinidae       10903XXXXX          2003     1
## 10 Albania Sharks, rays, chima~ Squatinidae       10903XXXXX          2004     4
## # ... with 376,761 more rows
```
…
