…
**4. How many total NA's are in each data set? Do these values make sense? Are NA's represented by values?**   


```r
miss_var_summary(amniota)
```

```
## # A tibble: 36 x 3
##    variable                  n_miss pct_miss
##    <chr>                      <int>    <dbl>
##  1 class                          0        0
##  2 order                          0        0
##  3 family                         0        0
##  4 genus                          0        0
##  5 species                        0        0
##  6 subspecies                     0        0
##  7 common_name                    0        0
##  8 female_maturity_d              0        0
##  9 litter_or_clutch_size_n        0        0
## 10 litters_or_clutches_per_y      0        0
## # ... with 26 more rows
```
…
```
##    Min. 1st Qu.  Median    Mean 3rd Qu.    Max.    NA's 
##    0.17    6.00   10.00   11.68   15.00  121.80    6417
```


```r
miss_var_summary(amphibio)
```

```
## # A tibble: 38 x 3
##    variable n_miss pct_miss
##    <chr>     <int>    <dbl>
##  1 OBS        6776    100  
##  2 Fruits     6774    100. 
##  3 Flowers    6772     99.9
##  4 Seeds      6772     99.9
##  5 Leaves     6752     99.6
##  6 Dry_cold   6735     99.4
##  7 Vert       6657     98.2
##  8 Wet_cold   6625     97.8
##  9 Crepu      6608     97.5
## 10 Dry_warm   6572     97.0
## # ... with 28 more rows
```
…
**6. Use the package `naniar` to produce a summary, including percentages, of missing data in each column for the `amniota` data.**  

```r
miss_var_summary(amniota)
```

```
## # A tibble: 36 x 3
##    variable                       n_miss pct_miss
##    <chr>                           <int>    <dbl>
##  1 subspecies                      21322    100  
##  2 female_body_mass_at_maturity_g  21318    100. 
##  3 female_svl_at_maturity_cm       21120     99.1
##  4 fledging_mass_g                 21111     99.0
##  5 male_svl_cm                     21040     98.7
##  6 no_sex_maturity_d               20860     97.8
##  7 egg_width_mm                    20727     97.2
##  8 egg_length_mm                   20702     97.1
##  9 weaning_weight_g                20258     95.0
## 10 female_svl_cm                   20242     94.9
## # ... with 26 more rows
```

**7. Use the package `naniar` to produce a summary, including percentages, of missing data in each column for the `amphibio` data.**

```r
miss_var_summary(amphibio)
```

```
## # A tibble: 38 x 3
##    variable n_miss pct_miss
##    <chr>     <int>    <dbl>
##  1 OBS        6776    100  
##  2 Fruits     6774    100. 
##  3 Flowers    6772     99.9
##  4 Seeds      6772     99.9
##  5 Leaves     6752     99.6
##  6 Dry_cold   6735     99.4
##  7 Vert       6657     98.2
##  8 Wet_cold   6625     97.8
##  9 Crepu      6608     97.5
## 10 Dry_warm   6572     97.0
## # ... with 28 more rows
```
…
**10. Now that we know how NA's are represented in the `amniota` data, how would you load the data such that the values which represent NA's are automatically converted?**

```r
replace_na(amphibio, list(Fos = 0, Ter = 0, Aqu = 0, Arb = 0))
```

```
## # A tibble: 6,776 x 38
##    id    Order Family Genus Species   Fos   Ter   Aqu   Arb Leaves Flowers Seeds
##    <chr> <chr> <chr>  <chr> <chr>   <dbl> <dbl> <dbl> <dbl>  <dbl>   <dbl> <lgl>
##  1 Anf0~ Anura Allop~ Allo~ Alloph~     0     1     1     1     NA      NA NA   
##  2 Anf0~ Anura Alyti~ Alyt~ Alytes~     0     1     1     1     NA      NA NA   
##  3 Anf0~ Anura Alyti~ Alyt~ Alytes~     0     1     1     1     NA      NA NA   
##  4 Anf0~ Anura Alyti~ Alyt~ Alytes~     0     1     1     1     NA      NA NA   
##  5 Anf0~ Anura Alyti~ Alyt~ Alytes~     0     1     0     1     NA      NA NA   
##  6 Anf0~ Anura Alyti~ Alyt~ Alytes~     1     1     1     1     NA      NA NA   
##  7 Anf0~ Anura Alyti~ Disc~ Discog~     1     1     1     0     NA      NA NA   
##  8 Anf0~ Anura Alyti~ Disc~ Discog~     1     1     1     0     NA      NA NA   
##  9 Anf0~ Anura Alyti~ Disc~ Discog~     1     1     1     0     NA      NA NA   
## 10 Anf0~ Anura Alyti~ Disc~ Discog~     1     1     1     0     NA      NA NA   
## # ... with 6,766 more rows, and 26 more variables: Fruits <dbl>, Arthro <dbl>,
## #   Vert <dbl>, Diu <dbl>, Noc <dbl>, Crepu <dbl>, Wet_warm <dbl>,
## #   Wet_cold <dbl>, Dry_warm <dbl>, Dry_cold <dbl>, Body_mass_g <dbl>,
## #   Age_at_maturity_min_y <dbl>, Age_at_maturity_max_y <dbl>,
## #   Body_size_mm <dbl>, Size_at_maturity_min_mm <dbl>,
## #   Size_at_maturity_max_mm <dbl>, Longevity_max_y <dbl>,
## #   Litter_size_min_n <dbl>, Litter_size_max_n <dbl>,
## #   Reproductive_output_y <dbl>, Offspring_size_min_mm <dbl>,
## #   Offspring_size_max_mm <dbl>, Dir <dbl>, Lar <dbl>, Viv <dbl>, OBS <lgl>
```
…
